{
  "id": "earthdawn4e",
  "title": "Earthdawn 4th Edition",
  "description": "An implementation of the Earthdawn 4th Edition ruleset.",
  "version": "0.8.0",
  "compatibility": {
    "minimum": "10",
    "verified": "10"
  },
  "authors": [
    {
      "name": "Tom LaPorta",
      "flags": {}
    },
    {
      "name": "Patrick Mohrmann",
      "flags": {}
    }
  ],
  "esmodules": [
    "modules/earthdawn4e.js"
  ],
  "socket": true,
  "styles": [
    "styles/earthdawn4e.css"
  ],
  "languages": [
    {
      "lang": "en",
      "name": "English",
      "path": "lang/en.json",
      "flags": {}
    },
    {
      "lang": "de",
      "name": "German",
      "path": "lang/de.json",
      "flags": {}
    },
    {
      "lang": "pl",
      "name": "Polish",
      "path": "lang/pl.json",
      "flags": {}
    },
    {
      "lang": "fr",
      "name": "French",
      "path": "lang/fr.json",
      "flags": {}
    }
  ],
  "gridDistance": 2,
  "initiative": "@initiativeRoll",
  "gridUnits": "yd",
  "primaryTokenAttribute": "damage",
  "url": "https://gitlab.com/fattom23/earthdawn4e-foundry",
  "manifest": "https://gitlab.com/fattom23/earthdawn4e/-/raw/0.8.0-production/system.json",
  "download": "https://gitlab.com/fattom23/earthdawn4e/-/archive/0.8.0-production/earthdawn4e-0.8.0-production.zip",
  "license": "LICENSE.txt",
  "media": [
    {
      "type": "cover",
      "url": "systems/earthdawn4e/assets/earthdawn-logo.png",
      "loop": false,
      "flags": {}
    }
  ],
  "relationships": {
    "requires": [
      {
        "id": "socketlib",
        "type": "module",
        "manifest": "https://raw.githubusercontent.com/manuelVo/foundryvtt-socketlib/master/module.json",
        "compatibility": {
          "minimum": "1.0.10",
          "verified": "1.0.10",
          "maximum": "1.0.10"
        }
      }
    ]
  }
}
