{
  "Actor": {
    "types": [
      "pc",
      "npc",
      "creature"
    ],
    "pc": {
      "biography": "",
      "race": "",
      "height": "",
      "sex": "",
      "weight": "",
      "age": "",
      "hair": "",
      "eyes": "",
      "skin": "",
      "passion": "",
      "movement": "",
      "languages": {
        "speake":{
        "dwarven": true,
        "elven": false,
        "human": false,
        "obsidiman": false,
        "ork": false,
        "tskrang": false,
        "troll": false,
        "windling": false
        },
        "write":{
          "dwarven": true,
          "elven": false,
          "human": false,
          "obsidiman": false,
          "ork": false,
          "tskrang": false,
          "troll": false,
          "windling": false
        },
        "other": ""
      },
      "attributes": {
        "dexterityvalue": 10,
        "strengthvalue": 10,
        "toughnessvalue": 10,
        "perceptionvalue": 10,
        "willpowervalue": 10,
        "charismavalue": 10,
        "dexterityinitial": 0,
        "strengthinitial": 0,
        "toughnessinitial": 0,
        "perceptioninitial": 0,
        "willpowerinitial": 0,
        "charismainitial": 0
      },
      "overrides": {
        "physicaldefense": 0,
        "mysticdefense": 0,
        "socialdefense": 0,
        "unconsciousrating": 0,
        "deathrating": 0,
        "physicalarmor": 0,
        "mysticarmor": 0,
        "movement": 0,
        "movementOther": 0,
        "recoverytestsrefresh": 0,
        "recoverytestscurrent": 0,
        "bloodMagicDamage": 0,
        "bloodMagicWounds": 0,
        "woundthreshold": 0,
        "initiative": 0
      },
      "tactics": {
        "aggressive": false,
        "defensive": false,
        "knockeddown": false,
        "harried": false,
        "attackToStun": false,
        "fatigue": false
      },
      "damage": {
        "value": 0,
        "min": 0,
        "max": 0,
        "stun": 0
      },
      "devotionDie": "d4",
      "devotion":{
        "value": 0,
        "min": 0 
      },
      "unconscious": {
        "min": 0
      },
      "unconsciousleft":{
        "min": 0
      },
      "wounds": "",
      "recoverytestscurrent": 0,
      "karma": {
        "value": 0,
        "min": 0
      },
      "karmaDie": "d6",
      "legendpointtotal": 0,
      "legendpointcurrent": 0,
      "legendPointsSpent": 0,
      "legendStatus": "",
      "showLPtracking": false,
      "unspentattributepoints": 0,
      "usekarma": "false",
      "money": {
        "gold": 0,
        "silver": 0,
        "copper": 0
      }
    },
    "npc": {
      "dexterityStep": 0,
      "strengthStep": 0,
      "toughnessStep": 0,
      "perceptionStep": 0,
      "willpowerStep": 0,
      "charismaStep": 0,
      "initiativeStep": 1,
      "initiativeDice": "",
      "physicaldefense": 0,
      "mysticdefense": 0,
      "socialdefense": 0,
      "physicalarmor": 0,
      "mysticarmor": 0,
      "knockdown": "",
      "recoverytests": "",
      "deathThreshold": 0,
      "unconsciousThreshold": 0,
      "woundThreshold": 0,
      "wounds": 0,
      "action": 1,
      "recoverytestscurrent": 0,
      "recoverytestsrefresh": 0,
      "movement": "",
      "unconsciousleft":{
        "min": 0
      },
      "damage": {
        "value": 0,
        "min": 0,
        "stun": 0
      },
      "unconscious": {
        "min": 0
      },
      "karma": {
        "value": 0,
        "min": 0,
        "max": 0
      },
      "devotionDie": "d4",
      "devotion":{
        "value": 0,
        "min": 0
        
      },
      "karmaDie": "d6",
      "usekarma": "false",
      "tactics": {
        "defensive": false,
        "aggressive": false,
        "knockeddown": false,
        "harried": false
      },
      "description": "",
      "descriptionGameInfo": ""
    },
    "creature": {
      "dexterityStep": 0,
      "strengthStep": 0,
      "toughnessStep": 0,
      "perceptionStep": 0,
      "willpowerStep": 0,
      "charismaStep": 0,
      "initiativeStep": 1,
      "initiativeDice": "",
      "movement": "",
      "otherMovement": "",
      "physicaldefense": 0,
      "mysticdefense": 0,
      "socialdefense": 0,
      "physicalarmor": 0,
      "mysticarmor": 0,
      "knockdown": "",
      "recoverytests": "",
      "deathThreshold": 0,
      "unconsciousThreshold": 0,
      "woundThreshold": 0,
      "wounds": 0,
      "attacks": 1,
      "challenge": "",
      "damage": {
        "value": 0,
        "min": 0,
        "max": 0,
        "stun": 0
      },
      "unconscious": {
        "min": 0
      },
      "unconsciousleft":{
        "min": 0
      },
      "karma": {
        "value": 0,
        "min": 0,
        "max": 0
      },
      "devotionDie": "d4",
      "devotion":{
        "value": 0,
        "min": 0
        
      },
      "karmaDie": "d6",
      "tactics": {
        "defensive": false,
        "aggressive": false,
        "knockeddown": false,
        "harried": false
      },
      "description": "",
      "descriptionGameInfo": ""
    }
  },
  "Item": {
    "types": ["armor", "attack", "devotion", "discipline", "equipment","effect", "knack", "mask", "namegiver", "shield", "skill", "spell", "spellmatrix", "talent", "thread", "weapon", "thread"],
    "shield":{
      "description": "",
      "descriptionThreadItem": "",
      "physicaldefense": "",
      "mysticdefense": "",
      "initiativepenalty": "",
      "shatterthreshold": "",
      "cost": "",
      "weight": "",
      "isthread": false,
      "availability": "Average",
      "worn": false,
      "numberthreads": 0,
      "threadItemTier":"",
      "threads": {},
      "bloodMagicDamage": 0,
      "maxThreads": 0,
      "defenseTarget": "",
      "defenseGroup": "",
      "effectMultiplier": ""
    },
    "devotion": {
      "ranks": 1,
      "attribute": "",
      "additionalmodifier": 0,
      "action": "",
      "strain": "",
      "description": "",
      "devotionRequired": "false",
      "favorite": false,
      "tier": "Novice",
      "defenseTarget": "",
      "defenseGroup": "",
      "effectMultiplier": ""

    },
    "talent": {
      "ranks": 1,
      "attribute": "",
      "additionalmodifier": 0,
      "action": "",
      "strain": "",
      "description": "",
      "source": "Discipline",
      "favorite": false,
      "tier": "Novice",
      "defenseTarget": "",
      "defenseGroup": "",
      "effectMultiplier": ""
    },

    "discipline": {
      "discipline": "discipline",
      "circle": 1,
      "durability": 0,
      "description": "",
      "relatedDiscipline": "",
      "descriptionGameInfo": "",
      "descriptionNovice": "",
      "descriptionJourneyman": "",
      "descriptionWarden": "",
      "descriptionMaster": "",
      "descriptionCircle1": "",
      "descriptionCircle2": "",
      "descriptionCircle3": "",
      "descriptionCircle4": "",
      "descriptionCircle5": "",
      "descriptionCircle6": "",
      "descriptionCircle7": "",
      "descriptionCircle8": "",
      "descriptionCircle9": "",
      "descriptionCircle10": "",
      "descriptionCircle11": "",
      "descriptionCircle12": "",
      "descriptionCircle13": "",
      "descriptionCircle14": "",
      "descriptionCircle15": "",
      "circle1": {
        "talents": "",
        "characteristic": "",
        "value": 0,
        "data.karmaAbility1": ""
      },
      "circle2": {
        "talents": "",
        "characteristic": "",
        "value": 0,
        "data.karmaAbility2": ""
      },
      "circle3": {
        "talents": "",
        "characteristic": "",
        "value": 0
      },
      "circle4": {
        "talents": "",
        "characteristic": "",
        "value": 0
      },
      "circle5": {
        "talents": "",
        "characteristic": "",
        "value": 0
      },
      "circle6": {
        "talents": "",
        "characteristic": "",
        "value": 0
      },
      "circle7": {
        "talents": "",
        "characteristic": "",
        "value": 0
      },
      "circle8": {
        "talents": "",
        "characteristic": "",
        "value": 0
      },
      "circle9": {
        "talents": "",
        "characteristic": "",
        "value": 0
      },
      "circle10": {
        "talents": "",
        "characteristic": "",
        "value": 0
      },
      "circle11": {
        "talents": "",
        "characteristic": "",
        "value": 0
      },
      "circle12": {
        "talents": "",
        "characteristic": "",
        "value": 0
      },
      "circle13": {
        "talents": "",
        "characteristic": "",
        "value": 0
      },
      "circle14": {
        "talents": "",
        "characteristic": "",
        "value": 0
      },
      "circle15": {
        "talents": "",
        "characteristic": "",
        "value": 0
      }
    },
    "attack": {
      "attackstep": 1,
      "damagestep": 1,
      "strain": 0,
      "action": "",
      "description": "",
      "powerType": "Attack",
      "defenseTarget": "",
      "defenseGroup": "",
      "effectMultiplier": ""
    },

    "spellmatrix": {
      "currentspell": "",
      "spellId": "",
      "constantthreads": 0,
      "activethreads": 0,
      "mysticdefense": "",
      "currentdamage": 0,
      "threadsrequired": "",
      "targetadditionalthreads": 0,
      "weavingdifficulty": "",
      "reattuningdifficulty": 10,
      "castingdifficulty": "",
      "range": "",
      "circle": 1,
      "discipline": "",
      "description": "",
      "extrathreads": "",
      "extrasuccesses": ""
    },
    "spell": {
      "threadsrequired": "",
      "weavingdifficulty": "",
      "reattunedifficulty": "",
      "castingdifficulty": "",
      "circle": 1,
      "range": "",
      "duration": "",
      "effect": "",
      "discipline": "",
      "description": "",
      "extrathreads": "",
      "extrasuccesses": "",
      "areaofeffect": "",
      "defenseTarget": "",
      "defenseGroup": "",
      "effectMultiplier": ""
    },

    "skill": {
      "attribute": "",
      "ranks": 1,
      "action": "",
      "description": "",
      "karma": "No",
      "strain": 0,
      "tier": "Novice",
      "defenseTarget": "",
      "defenseGroup": "",
      "effectMultiplier": ""
    },

    "weapon": {
      "description": "",
      "descriptionThreadItem": "",
      "weight": "",
      "damagestep": "",
      "damageattribute": "strength",
      "weapontype": "Melee",
      "ammo": {
        "value": 0,
        "min": 0,
        "max": 0
      },
      "strenghtminimum": "",
      "size": "",
      "cost": "",
      "availability": "",
      "shortrange": "",
      "longrange": "",
      "isthread": false,
      "worn": false,
      "numberthreads": 0,
      "threadItemTier": "",
      "threads": {},
      "timesForged":0,
      "bloodMagicDamage": 0,
      "defenseTarget": "",
      "defenseGroup": "",
      "effectMultiplier": ""
    },

  "armor":{
    "description": "",
    "descriptionThreadItem": "",
    "weight": "",
    "cost": "",
    "Aphysicalarmor": "",
    "Amysticarmor": "",
    "armorPenalty": "",
    "availability": "",
    "isthread": false,
    "worn": false,
    "numberthreads": 0,
    "threadItemTier":"",
    "threads": {},
    "timesForgedPhysical":0,
    "timesForgedMystic":0,
    "bloodMagicDamage": 0,
      "defenseTarget": "",
      "defenseGroup": "",
      "effectMultiplier": ""
  },

  "namegiver":{
    "description": "",
    "racialAbilites": "",
    "karmamodifier": 0,
    "movement": 10,
    "attributes":{
      "dexterityvalue": 10,
      "strengthvalue": 10,
      "toughnessvalue": 10,
      "perceptionvalue": 10,
      "willpowervalue": 10,
      "charismavalue": 10
    },
    "bonus1":{"characteristic": "",
            "value": 0
          }
  },
  "thread":{
    "target": "",
    "characteristic": "",
    "rank": 1,
    "active": true,
    "description":""
  },
  "effect":{
    "duration": "",
    "active": true
  },
  "equipment":{
    "description": "",
    "descriptionThreadItem": "",
    "weight": "",
    "amount": 0,
    "cost": "",
    "availability": "",
    "isthread": false,
    "numberthreads": 0,
    "threadItemTier":"",
    "threads": {},
    "bloodMagicDamage": 0,
    "maxThreads": 0,
      "defenseTarget": "",
      "defenseGroup": "",
      "effectMultiplier": ""
  },

    "knack":{
      "additionalmodifier": 0,
      "action": "",
      "strain": 0,
      "description": "",
      "sourceTalentName": "",
      "sourceTalentId": "",
      "skillUse": "No",
      "favorite": false,
      "talentRequirement": "",
      "restrictions":"",
      "standardEffect": "No",
      "attribute": "",
      "defenseTarget": "",
      "defenseGroup": "",
      "effectMultiplier": ""
    },
    
    "mask":{
      "dexterityStep": 0,
      "strengthStep": 0,
      "toughnessStep": 0,
      "perceptionStep": 0,
      "willpowerStep": 0,
      "charismaStep": 0,
      "initiativeStep": 1,
      "movement": "",
      "otherMovement": "",
      "physicaldefense": 0,
      "mysticdefense": 0,
      "socialdefense": 0,
      "physicalarmor": 0,
      "mysticarmor": 0,
      "knockdown": "",
      "recoverytests": "",
      "deathThreshold": 0,
      "unconsciousThreshold": 0,
      "woundThreshold": 0,
      "attacks": 1,
      "attackStep": 0,
      "damageStep": 0,
      "challenge": "",
      "description": "",
      "powers": ""
    }
  }
}

